<?xml version="1.0" encoding="UTF-8" standalone="no"?>
<!-- Created with Inkscape (http://www.inkscape.org/) -->
<svg
   xmlns:dc="http://purl.org/dc/elements/1.1/"
   xmlns:cc="http://creativecommons.org/ns#"
   xmlns:rdf="http://www.w3.org/1999/02/22-rdf-syntax-ns#"
   xmlns:svg="http://www.w3.org/2000/svg"
   xmlns="http://www.w3.org/2000/svg"
   xmlns:xlink="http://www.w3.org/1999/xlink"
   xmlns:sodipodi="http://sodipodi.sourceforge.net/DTD/sodipodi-0.dtd"
   xmlns:inkscape="http://www.inkscape.org/namespaces/inkscape"
   style="fill:#000000;fill-opacity:0.5;stroke:none"
   width="553.11328"
   height="657.54572"
   id="svg1"
   sodipodi:docname="esiBW.svg"
   sodipodi:version="0.32"
   inkscape:version="0.46"
   sodipodi:docbase="/home/dvilla/repos/public/doc/logos"
   inkscape:output_extension="org.inkscape.output.svg.inkscape"
   version="1.0">
  <metadata
     id="metadata178">
    <rdf:RDF>
      <cc:Work
         rdf:about="">
        <dc:format>image/svg+xml</dc:format>
        <dc:type
           rdf:resource="http://purl.org/dc/dcmitype/StillImage" />
      </cc:Work>
    </rdf:RDF>
  </metadata>
  <defs
     id="defs3">
    <inkscape:perspective
       sodipodi:type="inkscape:persp3d"
       inkscape:vp_x="0 : 420.94489 : 1"
       inkscape:vp_y="0 : 1000 : 0"
       inkscape:vp_z="595.27557 : 420.94489 : 1"
       inkscape:persp3d-origin="297.63779 : 280.62992 : 1"
       id="perspective189" />
    <linearGradient
       inkscape:collect="always"
       id="linearGradient2227">
      <stop
         style="stop-color:#000000;stop-opacity:1;"
         offset="0"
         id="stop2229" />
      <stop
         style="stop-color:#000000;stop-opacity:0;"
         offset="1"
         id="stop2231" />
    </linearGradient>
    <linearGradient
       id="linearGradient2217">
      <stop
         id="stop2219"
         offset="0.0000000"
         style="stop-color:#373737;stop-opacity:1.0000000;" />
      <stop
         id="stop2221"
         offset="1.000000"
         style="stop-color:#ffffff;stop-opacity:1;" />
    </linearGradient>
    <linearGradient
       id="linearGradient259">
      <stop
         style="stop-color:#000000;stop-opacity:1.0000000;"
         offset="0.0000000"
         id="stop260" />
      <stop
         style="stop-color:#ffffff;stop-opacity:1;"
         offset="1.000000"
         id="stop261" />
    </linearGradient>
    <linearGradient
       id="linearGradient255">
      <stop
         style="stop-color:#000000;stop-opacity:1;"
         offset="0.000000"
         id="stop256" />
      <stop
         style="stop-color:#ffffff;stop-opacity:1;"
         offset="1.000000"
         id="stop257" />
    </linearGradient>
    <linearGradient
       id="linearGradient218">
      <stop
         style="stop-color:#000000;stop-opacity:1;"
         offset="0.000000"
         id="stop219" />
      <stop
         style="stop-color:#ffffff;stop-opacity:1;"
         offset="1.000000"
         id="stop220" />
    </linearGradient>
    <linearGradient
       id="linearGradient214">
      <stop
         style="stop-color:#000000;stop-opacity:1;"
         offset="0.000000"
         id="stop215" />
      <stop
         style="stop-color:#ffffff;stop-opacity:1;"
         offset="1.000000"
         id="stop216" />
    </linearGradient>
    <linearGradient
       id="linearGradient210">
      <stop
         style="stop-color:#000000;stop-opacity:1;"
         offset="0.000000"
         id="stop211" />
      <stop
         style="stop-color:#ffffff;stop-opacity:1;"
         offset="1.000000"
         id="stop212" />
    </linearGradient>
    <linearGradient
       id="linearGradient206">
      <stop
         style="stop-color:#000000;stop-opacity:1;"
         offset="0.000000"
         id="stop207" />
      <stop
         style="stop-color:#ffffff;stop-opacity:1;"
         offset="1.000000"
         id="stop208" />
    </linearGradient>
    <linearGradient
       id="linearGradient202">
      <stop
         style="stop-color:#000000;stop-opacity:1;"
         offset="0.000000"
         id="stop203" />
      <stop
         style="stop-color:#ffffff;stop-opacity:1;"
         offset="1.000000"
         id="stop204" />
    </linearGradient>
    <linearGradient
       id="linearGradient198">
      <stop
         style="stop-color:#000000;stop-opacity:1;"
         offset="0.000000"
         id="stop199" />
      <stop
         style="stop-color:#ffffff;stop-opacity:1;"
         offset="1.000000"
         id="stop200" />
    </linearGradient>
    <linearGradient
       id="linearGradient157">
      <stop
         style="stop-color:#000000;stop-opacity:1;"
         offset="0.000000"
         id="stop158" />
      <stop
         style="stop-color:#ffffff;stop-opacity:1;"
         offset="1.000000"
         id="stop159" />
    </linearGradient>
    <linearGradient
       id="linearGradient154">
      <stop
         style="stop-color:#000000;stop-opacity:1;"
         offset="0.000000"
         id="stop155" />
      <stop
         style="stop-color:#ffffff;stop-opacity:1;"
         offset="1.000000"
         id="stop156" />
    </linearGradient>
    <linearGradient
       id="linearGradient151">
      <stop
         style="stop-color:#000000;stop-opacity:1;"
         offset="0.000000"
         id="stop152" />
      <stop
         style="stop-color:#ffffff;stop-opacity:1;"
         offset="1.000000"
         id="stop153" />
    </linearGradient>
    <linearGradient
       id="linearGradient148">
      <stop
         style="stop-color:#000000;stop-opacity:1;"
         offset="0.000000"
         id="stop149" />
      <stop
         style="stop-color:#ffffff;stop-opacity:1;"
         offset="1.000000"
         id="stop150" />
    </linearGradient>
    <linearGradient
       id="linearGradient63">
      <stop
         style="stop-color:#000000;stop-opacity:1;"
         offset="0.000000"
         id="stop64" />
      <stop
         style="stop-color:#ffffff;stop-opacity:1;"
         offset="1.000000"
         id="stop65" />
    </linearGradient>
    <linearGradient
       xlink:href="#linearGradient63"
       id="linearGradient66"
       x1="10.241918"
       y1="840.28339"
       x2="-13.064828"
       y2="733.25751"
       gradientTransform="matrix(4.688519e-2,0.5798642,-0.2870621,2.367509e-2,654.13306,563.51279)"
       gradientUnits="userSpaceOnUse" />
    <linearGradient
       xlink:href="#linearGradient157"
       id="linearGradient147"
       x1="-401.82837"
       y1="132.952"
       x2="172.76076"
       y2="432.63412"
       gradientTransform="scale(0.8908,1.1225865)"
       gradientUnits="userSpaceOnUse" />
    <linearGradient
       xlink:href="#linearGradient157"
       id="linearGradient138"
       x1="385.70776"
       y1="841.64111"
       x2="408.7785"
       y2="841.9234"
       gradientTransform="matrix(1.0823942,0,0,0.9238779,-210.01794,-152.26597)"
       gradientUnits="userSpaceOnUse" />
    <linearGradient
       xlink:href="#linearGradient157"
       id="linearGradient139"
       x1="233.50461"
       y1="1431.5337"
       x2="163.03584"
       y2="1432.7659"
       gradientTransform="matrix(-1.7665674,0,0,0.5241662,611.04806,-129.53537)"
       gradientUnits="userSpaceOnUse" />
    <linearGradient
       xlink:href="#linearGradient157"
       id="linearGradient152"
       x1="305.30148"
       y1="741.36304"
       x2="338.49606"
       y2="766.10175"
       gradientTransform="matrix(1.0764532,0,0,0.9289768,-52.046937,-78.05717)"
       gradientUnits="userSpaceOnUse" />
    <linearGradient
       xlink:href="#linearGradient206"
       id="linearGradient129"
       x1="212.82962"
       y1="372.24188"
       x2="211.91647"
       y2="145.87263"
       gradientTransform="matrix(1.5902759,0,0,0.6288217,-52.046937,-78.05717)"
       gradientUnits="userSpaceOnUse" />
    <linearGradient
       xlink:href="#linearGradient157"
       id="linearGradient140"
       x1="384.60907"
       y1="177.23216"
       x2="395.01517"
       y2="181.81456"
       gradientTransform="scale(1.0114431,0.9886864)"
       gradientUnits="userSpaceOnUse" />
    <linearGradient
       xlink:href="#linearGradient157"
       id="linearGradient193"
       x1="114.12989"
       y1="682.16528"
       x2="94.302467"
       y2="591.07025"
       gradientTransform="matrix(2.9759387,0,0,0.2982295,-34.754237,-47.22577)"
       gradientUnits="userSpaceOnUse" />
    <linearGradient
       xlink:href="#linearGradient202"
       id="linearGradient197"
       x1="158.22575"
       y1="519.80444"
       x2="154.38795"
       y2="406.58533"
       gradientTransform="matrix(2.1892153,0,0,0.4054022,-36.955237,-63.56027)"
       gradientUnits="userSpaceOnUse" />
    <linearGradient
       xlink:href="#linearGradient214"
       id="linearGradient209"
       x1="163.63016"
       y1="145.455"
       x2="372.78442"
       y2="271.61102"
       gradientTransform="matrix(0.8900638,0,0,0.6120056,30.329763,-18.90227)"
       gradientUnits="userSpaceOnUse" />
    <linearGradient
       xlink:href="#linearGradient218"
       id="linearGradient217"
       x1="299.62122"
       y1="140.64909"
       x2="153.29649"
       y2="251.78665"
       gradientTransform="matrix(-0.8900638,0,0,0.6120056,537.93606,-19.59737)"
       gradientUnits="userSpaceOnUse" />
    <linearGradient
       xlink:href="#linearGradient255"
       id="linearGradient254"
       x1="151.67238"
       y1="573.48071"
       x2="102.25563"
       y2="498.61816"
       gradientTransform="matrix(2.5204538,0,0,0.3521242,-34.638337,-45.02467)"
       gradientUnits="userSpaceOnUse" />
    <linearGradient
       xlink:href="#linearGradient2217"
       id="linearGradient258"
       x1="123.78101"
       y1="608.89197"
       x2="71.18338"
       y2="726.4502"
       gradientTransform="matrix(3.0744192,0,0,0.2886765,-33.711537,-35.75687)"
       gradientUnits="userSpaceOnUse" />
    <linearGradient
       inkscape:collect="always"
       xlink:href="#linearGradient259"
       id="linearGradient1478"
       x1="123.78101"
       y1="608.89197"
       x2="71.18338"
       y2="726.4502"
       gradientTransform="matrix(3.074419,0,0,-0.288677,-33.563567,343.40769)"
       gradientUnits="userSpaceOnUse" />
    <radialGradient
       inkscape:collect="always"
       xlink:href="#linearGradient2227"
       id="radialGradient2235"
       cx="316.63382"
       cy="262.04086"
       fx="316.63382"
       fy="262.04086"
       r="51.577312"
       gradientTransform="matrix(-2.021088,-5.294737e-6,5.796125e-7,-0.642604,956.5785,440.0206)"
       gradientUnits="userSpaceOnUse" />
    <linearGradient
       inkscape:collect="always"
       xlink:href="#linearGradient63"
       id="linearGradient2684"
       x1="9.9514771"
       y1="827.51184"
       x2="-12.465298"
       y2="724.57275"
       gradientTransform="matrix(-0.2527329,1.3758589,-0.7030931,-0.1291519,668.74606,397.29379)"
       gradientUnits="userSpaceOnUse" />
    <linearGradient
       inkscape:collect="always"
       xlink:href="#linearGradient63"
       id="linearGradient2686"
       x1="9.9514771"
       y1="827.51184"
       x2="-12.465298"
       y2="724.57275"
       gradientTransform="matrix(0.1672082,1.3888489,-0.7097313,8.5446917e-2,657.35983,240.76737)"
       gradientUnits="userSpaceOnUse" />
    <linearGradient
       inkscape:collect="always"
       xlink:href="#linearGradient63"
       id="linearGradient2688"
       x1="209.15508"
       y1="403.62469"
       x2="184.29745"
       y2="289.47708"
       gradientTransform="matrix(0.9775279,0,0,1.0229887,-27.414837,-85.09491)"
       gradientUnits="userSpaceOnUse" />
    <linearGradient
       inkscape:collect="always"
       xlink:href="#linearGradient63"
       id="linearGradient2690"
       x1="9.9514771"
       y1="827.51184"
       x2="-12.465298"
       y2="724.57275"
       gradientTransform="matrix(0.5033703,1.3051749,-0.6669721,0.2572329,610.44106,137.54679)"
       gradientUnits="userSpaceOnUse" />
    <linearGradient
       inkscape:collect="always"
       xlink:href="#linearGradient63"
       id="linearGradient2692"
       x1="197.57072"
       y1="411.52921"
       x2="172.99481"
       y2="298.6752"
       gradientTransform="matrix(0.8964202,0,0,1.1155483,-27.414837,-85.09491)"
       gradientUnits="userSpaceOnUse" />
    <linearGradient
       inkscape:collect="always"
       xlink:href="#linearGradient63"
       id="linearGradient2694"
       x1="9.9514771"
       y1="827.51184"
       x2="-12.465298"
       y2="724.57275"
       gradientTransform="matrix(0.7647888,1.1713077,-0.5985631,0.3908233,550.56806,75.18979)"
       gradientUnits="userSpaceOnUse" />
    <linearGradient
       inkscape:collect="always"
       xlink:href="#linearGradient63"
       id="linearGradient2696"
       x1="220.32115"
       y1="339.08667"
       x2="199.0961"
       y2="241.62003"
       gradientTransform="matrix(0.6537886,0,0,1.5295465,-27.414837,-85.09491)"
       gradientUnits="userSpaceOnUse" />
    <linearGradient
       inkscape:collect="always"
       xlink:href="#linearGradient63"
       id="linearGradient2698"
       x1="9.9514771"
       y1="827.51184"
       x2="-12.465298"
       y2="724.57275"
       gradientTransform="matrix(0.9681497,1.0097272,-0.515992,0.494745,486.74806,36.51079)"
       gradientUnits="userSpaceOnUse" />
    <linearGradient
       inkscape:collect="always"
       xlink:href="#linearGradient63"
       id="linearGradient2700"
       x1="255.09315"
       y1="305.53412"
       x2="236.79523"
       y2="221.50903"
       gradientTransform="matrix(0.5340654,0,0,1.8724299,-27.414837,-85.09491)"
       gradientUnits="userSpaceOnUse" />
    <linearGradient
       inkscape:collect="always"
       xlink:href="#linearGradient63"
       id="linearGradient2702"
       x1="9.9514771"
       y1="827.51184"
       x2="-12.465298"
       y2="724.57275"
       gradientTransform="matrix(1.1475365,0.800014,-0.4088241,0.5864155,415.65306,4.46233)"
       gradientUnits="userSpaceOnUse" />
    <linearGradient
       inkscape:collect="always"
       xlink:href="#linearGradient63"
       id="linearGradient2704"
       x1="9.9514771"
       y1="827.51184"
       x2="-12.465298"
       y2="724.57275"
       gradientTransform="matrix(1.2819283,0.5599298,-0.286136,0.6550926,333.86206,-20.87697)"
       gradientUnits="userSpaceOnUse" />
    <linearGradient
       inkscape:collect="always"
       xlink:href="#linearGradient63"
       id="linearGradient2706"
       x1="275.08176"
       y1="318.25598"
       x2="256.93799"
       y2="234.93866"
       gradientTransform="matrix(0.5173431,0,0,1.9329533,-27.414837,-85.09491)"
       gradientUnits="userSpaceOnUse" />
    <linearGradient
       inkscape:collect="always"
       xlink:href="#linearGradient63"
       id="linearGradient2708"
       x1="9.9514771"
       y1="827.51184"
       x2="-12.465298"
       y2="724.57275"
       gradientTransform="matrix(1.3755945,0.2541752,-0.1298889,0.702958,238.61706,-29.31547)"
       gradientUnits="userSpaceOnUse" />
    <linearGradient
       inkscape:collect="always"
       xlink:href="#linearGradient63"
       id="linearGradient2710"
       x1="9.9514771"
       y1="827.51184"
       x2="-12.465298"
       y2="724.57275"
       gradientTransform="matrix(1.0257751,0.9511295,-0.4860473,0.5241929,546.83006,143.09679)"
       gradientUnits="userSpaceOnUse" />
    <linearGradient
       inkscape:collect="always"
       xlink:href="#linearGradient63"
       id="linearGradient2712"
       x1="9.9514771"
       y1="827.51184"
       x2="-12.465298"
       y2="724.57275"
       gradientTransform="matrix(1.3988691,5.315871e-3,-2.7165228e-3,0.7148518,171.87906,-4.92687)"
       gradientUnits="userSpaceOnUse" />
    <linearGradient
       inkscape:collect="always"
       xlink:href="#linearGradient63"
       id="linearGradient2714"
       x1="10.241918"
       y1="840.28339"
       x2="-13.064828"
       y2="733.25751"
       gradientTransform="matrix(0.4174852,0.4051507,-0.2002641,0.2070249,610.34606,50.97079)"
       gradientUnits="userSpaceOnUse" />
    <linearGradient
       inkscape:collect="always"
       xlink:href="#linearGradient63"
       id="linearGradient2716"
       x1="10.241918"
       y1="840.28339"
       x2="-13.064828"
       y2="733.25751"
       gradientTransform="matrix(0.5630805,0.1462232,-7.1949425e-2,0.2789053,502.05806,-7.11497)"
       gradientUnits="userSpaceOnUse" />
    <linearGradient
       inkscape:collect="always"
       xlink:href="#linearGradient63"
       id="linearGradient2718"
       x1="10.241918"
       y1="840.28339"
       x2="-13.064828"
       y2="733.25751"
       gradientTransform="matrix(0.5810092,-2.9491821e-2,1.5063784e-2,0.2876421,425.10006,-12.25147)"
       gradientUnits="userSpaceOnUse" />
    <linearGradient
       inkscape:collect="always"
       xlink:href="#linearGradient63"
       id="linearGradient2720"
       x1="10.241918"
       y1="840.28339"
       x2="-13.064828"
       y2="733.25751"
       gradientTransform="matrix(0.4174852,0.4051507,-0.2002641,0.2070249,634.41406,69.02179)"
       gradientUnits="userSpaceOnUse" />
    <linearGradient
       inkscape:collect="always"
       xlink:href="#linearGradient63"
       id="linearGradient2722"
       x1="10.241918"
       y1="840.28339"
       x2="-13.064828"
       y2="733.25751"
       gradientTransform="matrix(0.5630805,0.1462232,-7.1949425e-2,0.2789053,526.12606,10.93583)"
       gradientUnits="userSpaceOnUse" />
    <linearGradient
       inkscape:collect="always"
       xlink:href="#linearGradient63"
       id="linearGradient2724"
       x1="10.241918"
       y1="840.28339"
       x2="-13.064828"
       y2="733.25751"
       gradientTransform="matrix(0.5810092,-2.9491821e-2,1.5063784e-2,0.2876421,451.17406,7.80493)"
       gradientUnits="userSpaceOnUse" />
    <linearGradient
       inkscape:collect="always"
       xlink:href="#linearGradient63"
       id="linearGradient2726"
       x1="10.241918"
       y1="840.28339"
       x2="-13.064828"
       y2="733.25751"
       gradientTransform="matrix(0.3976374,0.4246476,-0.2099329,0.1972131,664.63006,101.32779)"
       gradientUnits="userSpaceOnUse" />
    <linearGradient
       inkscape:collect="always"
       xlink:href="#linearGradient63"
       id="linearGradient2728"
       x1="10.241918"
       y1="840.28339"
       x2="-13.064828"
       y2="733.25751"
       gradientTransform="matrix(0.5554451,0.1729777,-8.5201433e-2,0.2751462,559.24306,38.13079)"
       gradientUnits="userSpaceOnUse" />
    <linearGradient
       inkscape:collect="always"
       xlink:href="#linearGradient63"
       id="linearGradient2730"
       x1="10.241918"
       y1="840.28339"
       x2="-13.064828"
       y2="733.25751"
       gradientTransform="matrix(0.5807563,-3.4112125e-2,1.7351154e-2,0.2875133,472.11906,31.81379)"
       gradientUnits="userSpaceOnUse" />
    <linearGradient
       inkscape:collect="always"
       xlink:href="#linearGradient63"
       id="linearGradient2732"
       x1="10.241918"
       y1="840.28339"
       x2="-13.064828"
       y2="733.25751"
       gradientTransform="matrix(0.3676711,0.4508423,-0.2229259,0.1823976,695.24406,144.02779)"
       gradientUnits="userSpaceOnUse" />
    <linearGradient
       inkscape:collect="always"
       xlink:href="#linearGradient63"
       id="linearGradient2734"
       x1="10.241918"
       y1="840.28339"
       x2="-13.064828"
       y2="733.25751"
       gradientTransform="matrix(0.5271466,0.2460815,-0.1214194,0.2611937,611.00606,78.90479)"
       gradientUnits="userSpaceOnUse" />
    <linearGradient
       inkscape:collect="always"
       xlink:href="#linearGradient63"
       id="linearGradient2736"
       x1="10.241918"
       y1="840.28339"
       x2="-13.064828"
       y2="733.25751"
       gradientTransform="matrix(0.5813231,2.2442962e-2,-1.0649616e-2,0.2878392,514.06506,61.44479)"
       gradientUnits="userSpaceOnUse" />
    <linearGradient
       inkscape:collect="always"
       xlink:href="#linearGradient63"
       id="linearGradient2738"
       x1="10.241918"
       y1="840.28339"
       x2="-13.064828"
       y2="733.25751"
       gradientTransform="matrix(0.3151538,0.488998,-0.2418588,0.1564258,726.81806,196.37479)"
       gradientUnits="userSpaceOnUse" />
    <linearGradient
       inkscape:collect="always"
       xlink:href="#linearGradient63"
       id="linearGradient2740"
       x1="10.241918"
       y1="840.28339"
       x2="-13.064828"
       y2="733.25751"
       gradientTransform="matrix(0.515484,0.2696596,-0.1331022,0.2554382,634.45406,115.32479)"
       gradientUnits="userSpaceOnUse" />
    <linearGradient
       inkscape:collect="always"
       xlink:href="#linearGradient63"
       id="linearGradient2742"
       x1="10.241918"
       y1="840.28339"
       x2="-13.064828"
       y2="733.25751"
       gradientTransform="matrix(0.5786113,6.0424068e-2,-2.9456696e-2,0.2865256,545.09706,93.55179)"
       gradientUnits="userSpaceOnUse" />
    <linearGradient
       inkscape:collect="always"
       xlink:href="#linearGradient63"
       id="linearGradient2744"
       x1="10.241918"
       y1="840.28339"
       x2="-13.064828"
       y2="733.25751"
       gradientTransform="matrix(0.1845849,0.5516963,-0.2730061,9.18299e-2,756.60906,291.90979)"
       gradientUnits="userSpaceOnUse" />
    <linearGradient
       inkscape:collect="always"
       xlink:href="#linearGradient63"
       id="linearGradient2746"
       x1="10.241918"
       y1="840.28339"
       x2="-13.064828"
       y2="733.25751"
       gradientTransform="matrix(0.4684755,0.3449212,-0.1704029,0.232223,672.07206,167.80479)"
       gradientUnits="userSpaceOnUse" />
    <linearGradient
       inkscape:collect="always"
       xlink:href="#linearGradient63"
       id="linearGradient2748"
       x1="10.241918"
       y1="840.28339"
       x2="-13.064828"
       y2="733.25751"
       gradientTransform="matrix(0.5584169,0.1631319,-8.0325116e-2,0.276609,590.96706,136.17779)"
       gradientUnits="userSpaceOnUse" />
    <linearGradient
       inkscape:collect="always"
       xlink:href="#linearGradient63"
       id="linearGradient2750"
       x1="10.241918"
       y1="840.28339"
       x2="-13.064828"
       y2="733.25751"
       gradientTransform="matrix(8.3794358e-2,0.5756907,-0.2849657,4.1945543e-2,768.89006,367.89579)"
       gradientUnits="userSpaceOnUse" />
    <linearGradient
       inkscape:collect="always"
       xlink:href="#linearGradient63"
       id="linearGradient2752"
       x1="10.241918"
       y1="840.28339"
       x2="-13.064828"
       y2="733.25751"
       gradientTransform="matrix(0.4017513,0.4207553,-0.2080027,0.1992475,708.66306,235.61179)"
       gradientUnits="userSpaceOnUse" />
    <linearGradient
       inkscape:collect="always"
       xlink:href="#linearGradient63"
       id="linearGradient2754"
       x1="10.241918"
       y1="840.28339"
       x2="-13.064828"
       y2="733.25751"
       gradientTransform="matrix(0.5361528,0.2257905,-0.1113654,0.2656357,621.95206,179.93279)"
       gradientUnits="userSpaceOnUse" />
    <linearGradient
       inkscape:collect="always"
       xlink:href="#linearGradient63"
       id="linearGradient2756"
       x1="10.241918"
       y1="840.28339"
       x2="-13.064828"
       y2="733.25751"
       gradientTransform="matrix(1.9386813e-2,0.5814339,-0.2878604,1.0061037e-2,767.36706,430.83979)"
       gradientUnits="userSpaceOnUse" />
    <linearGradient
       inkscape:collect="always"
       xlink:href="#linearGradient63"
       id="linearGradient2758"
       x1="10.241918"
       y1="840.28339"
       x2="-13.064828"
       y2="733.25751"
       gradientTransform="matrix(0.2754994,0.5123858,-0.2534706,0.1368121,737.55506,325.59179)"
       gradientUnits="userSpaceOnUse" />
    <linearGradient
       inkscape:collect="always"
       xlink:href="#linearGradient63"
       id="linearGradient2760"
       x1="10.241918"
       y1="840.28339"
       x2="-13.064828"
       y2="733.25751"
       gradientTransform="matrix(0.4613586,0.3543848,-0.175094,0.2287061,665.95106,245.54679)"
       gradientUnits="userSpaceOnUse" />
    <linearGradient
       inkscape:collect="always"
       xlink:href="#linearGradient63"
       id="linearGradient2762"
       x1="10.241918"
       y1="840.28339"
       x2="-13.064828"
       y2="733.25751"
       gradientTransform="matrix(-0.1145961,0.570358,-0.2824828,-5.6284532e-2,750.66706,522.61679)"
       gradientUnits="userSpaceOnUse" />
    <linearGradient
       inkscape:collect="always"
       xlink:href="#linearGradient63"
       id="linearGradient2764"
       x1="10.241918"
       y1="840.28339"
       x2="-13.064828"
       y2="733.25751"
       gradientTransform="matrix(0.1617739,0.5588104,-0.2765463,8.0541231e-2,745.28806,408.08979)"
       gradientUnits="userSpaceOnUse" />
    <linearGradient
       inkscape:collect="always"
       xlink:href="#linearGradient63"
       id="linearGradient2766"
       x1="10.241918"
       y1="840.28339"
       x2="-13.064828"
       y2="733.25751"
       gradientTransform="matrix(0.3674822,0.4509957,-0.2230019,0.182304,695.44406,318.29879)"
       gradientUnits="userSpaceOnUse" />
    <linearGradient
       inkscape:collect="always"
       xlink:href="#linearGradient63"
       id="linearGradient2768"
       x1="10.241918"
       y1="840.28339"
       x2="-13.064828"
       y2="733.25751"
       gradientTransform="matrix(-0.2197972,0.5386373,-0.2668606,-0.1083968,718.58406,597.59979)"
       gradientUnits="userSpaceOnUse" />
    <linearGradient
       inkscape:collect="always"
       xlink:href="#linearGradient63"
       id="linearGradient2770"
       x1="10.241918"
       y1="840.28339"
       x2="-13.064828"
       y2="733.25751"
       gradientTransform="matrix(0.1059948,0.5720172,-0.2831298,5.2934959e-2,732.92906,463.56479)"
       gradientUnits="userSpaceOnUse" />
    <linearGradient
       inkscape:collect="always"
       xlink:href="#linearGradient63"
       id="linearGradient2772"
       x1="10.241918"
       y1="840.28339"
       x2="-13.064828"
       y2="733.25751"
       gradientTransform="matrix(0.2727677,0.5138461,-0.2541957,0.1354598,700.97806,386.65879)"
       gradientUnits="userSpaceOnUse" />
    <linearGradient
       inkscape:collect="always"
       xlink:href="#linearGradient63"
       id="linearGradient2774"
       x1="10.241918"
       y1="840.28339"
       x2="-13.064828"
       y2="733.25751"
       gradientTransform="matrix(-0.3186583,0.4867209,-0.2412351,-0.157386,673.10306,666.90979)"
       gradientUnits="userSpaceOnUse" />
    <linearGradient
       inkscape:collect="always"
       xlink:href="#linearGradient63"
       id="linearGradient2776"
       x1="10.241918"
       y1="840.28339"
       x2="-13.064828"
       y2="733.25751"
       gradientTransform="matrix(3.0002078e-2,0.5809808,-0.287628,1.5316998e-2,715.68306,517.95079)"
       gradientUnits="userSpaceOnUse" />
    <linearGradient
       inkscape:collect="always"
       xlink:href="#linearGradient63"
       id="linearGradient2778"
       x1="10.241918"
       y1="840.28339"
       x2="-13.064828"
       y2="733.25751"
       gradientTransform="matrix(0.2029667,0.5452016,-0.2697757,0.1009257,692.40706,447.02579)"
       gradientUnits="userSpaceOnUse" />
    <linearGradient
       inkscape:collect="always"
       xlink:href="#linearGradient63"
       id="linearGradient2780"
       x1="10.241918"
       y1="840.28339"
       x2="-13.064828"
       y2="733.25751"
       gradientTransform="matrix(-0.3495081,0.4650647,-0.2305371,-0.1726766,641.73906,708.22279)"
       gradientUnits="userSpaceOnUse" />
    <linearGradient
       inkscape:collect="always"
       xlink:href="#linearGradient63"
       id="linearGradient2782"
       x1="10.241918"
       y1="840.28339"
       x2="-13.064828"
       y2="733.25751"
       gradientTransform="matrix(-7.4344503e-2,0.5769848,-0.285733,-3.6349641e-2,687.76906,594.50079)"
       gradientUnits="userSpaceOnUse" />
    <linearGradient
       inkscape:collect="always"
       xlink:href="#linearGradient63"
       id="linearGradient2784"
       x1="10.241918"
       y1="840.28339"
       x2="-13.064828"
       y2="733.25751"
       gradientTransform="matrix(0.1022301,0.5727033,-0.2834726,5.1071512e-2,681.19206,516.50379)"
       gradientUnits="userSpaceOnUse" />
    <linearGradient
       inkscape:collect="always"
       xlink:href="#linearGradient63"
       id="linearGradient2786"
       x1="10.241918"
       y1="840.28339"
       x2="-13.064828"
       y2="733.25751"
       gradientTransform="matrix(-0.4333171,0.3881724,-0.1925332,-0.2142327,581.39906,765.67379)"
       gradientUnits="userSpaceOnUse" />
    <linearGradient
       inkscape:collect="always"
       xlink:href="#linearGradient63"
       id="linearGradient2788"
       x1="10.241918"
       y1="840.28339"
       x2="-13.064828"
       y2="733.25751"
       gradientTransform="matrix(-0.1469463,0.5628902,-0.2788124,-7.2307036e-2,651.96006,644.65679)"
       gradientUnits="userSpaceOnUse" />
    <linearGradient
       inkscape:collect="always"
       xlink:href="#linearGradient157"
       id="linearGradient2790"
       x1="327.4783"
       y1="993.89154"
       x2="371.86905"
       y2="994.43475"
       gradientTransform="matrix(1.2690255,0,0,0.7880062,-62.743737,-154.27157)"
       gradientUnits="userSpaceOnUse" />
    <linearGradient
       inkscape:collect="always"
       xlink:href="#linearGradient157"
       id="linearGradient2792"
       x1="385.70776"
       y1="841.64111"
       x2="408.7785"
       y2="841.9234"
       gradientTransform="matrix(-1.0823942,0,0,0.9238779,796.38806,-151.59737)"
       gradientUnits="userSpaceOnUse" />
    <linearGradient
       inkscape:collect="always"
       xlink:href="#linearGradient157"
       id="linearGradient2794"
       x1="233.50461"
       y1="1431.5337"
       x2="163.03584"
       y2="1432.7659"
       gradientTransform="matrix(1.7665674,0,0,0.5241662,-24.678437,-128.86677)"
       gradientUnits="userSpaceOnUse" />
    <linearGradient
       inkscape:collect="always"
       xlink:href="#linearGradient157"
       id="linearGradient2796"
       x1="327.4783"
       y1="993.89154"
       x2="371.86905"
       y2="994.43475"
       gradientTransform="matrix(-1.2690255,0,0,0.7880062,649.11406,-154.94007)"
       gradientUnits="userSpaceOnUse" />
    <linearGradient
       inkscape:collect="always"
       xlink:href="#linearGradient157"
       id="linearGradient2798"
       x1="384.60907"
       y1="177.23216"
       x2="395.01517"
       y2="181.81456"
       gradientTransform="scale(1.0114431,0.9886864)"
       gradientUnits="userSpaceOnUse" />
    <linearGradient
       inkscape:collect="always"
       xlink:href="#linearGradient157"
       id="linearGradient2800"
       x1="384.60907"
       y1="177.23216"
       x2="395.01517"
       y2="181.81456"
       gradientTransform="scale(1.0114431,0.9886864)"
       gradientUnits="userSpaceOnUse" />
    <linearGradient
       inkscape:collect="always"
       xlink:href="#linearGradient157"
       id="linearGradient2802"
       x1="384.60907"
       y1="177.23216"
       x2="395.01517"
       y2="181.81456"
       gradientTransform="scale(1.0114431,0.9886864)"
       gradientUnits="userSpaceOnUse" />
    <linearGradient
       inkscape:collect="always"
       xlink:href="#linearGradient157"
       id="linearGradient2804"
       x1="119.54406"
       y1="661.13202"
       x2="98.21167"
       y2="563.12256"
       gradientTransform="matrix(3.0002732,0,0,0.333303,-52.046937,-78.05717)"
       gradientUnits="userSpaceOnUse" />
  </defs>
  <sodipodi:namedview
     id="base"
     inkscape:zoom="1.1735503"
     inkscape:cx="444.95036"
     inkscape:cy="317.82709"
     inkscape:window-width="1248"
     inkscape:window-height="772"
     inkscape:window-x="0"
     inkscape:window-y="1024"
     inkscape:current-layer="svg1"
     showgrid="false"
     pagecolor="#ffffff"
     inkscape:pageopacity="1"
     units="mm"
     inkscape:document-units="mm" />
  <path
     sodipodi:type="arc"
     style="opacity:1;fill:url(#radialGradient2235);fill-opacity:1"
     id="path2223"
     sodipodi:cx="316.63382"
     sodipodi:cy="275.92706"
     sodipodi:rx="51.577312"
     sodipodi:ry="15.958899"
     d="M 368.21113,275.92706 A 51.577312,15.958899 0 1 1 265.05651,275.92706 A 51.577312,15.958899 0 1 1 368.21113,275.92706 z"
     transform="matrix(1.282511,0,0,0.753623,-121.26193,-56.66319)" />
  <path
     style="font-size:12px;fill:#666666;fill-opacity:1;fill-rule:evenodd;stroke:#000000"
     d="M 91.050063,507.55974 C 111.87106,538.04574 143.21806,567.82574 161.40306,582.74274 C 178.58606,597.65874 219.86206,612.54574 262.37506,619.78174 C 305.66706,628.15274 328.69106,640.16874 367.43806,657.04574 L 368.83106,651.13974 C 329.69406,634.15274 306.67006,622.13674 263.37806,613.76574 C 220.86506,606.52974 179.58906,591.64274 162.40606,576.72674 C 144.22106,561.80974 112.87406,532.02974 92.269063,500.97674 C 91.644063,504.28974 91.050063,506.37074 91.050063,507.55974 z"
     id="path130" />
  <text
     style="font-size:12px;font-weight:normal;fill-opacity:1;font-family:helvetica"
     x="-52.046936"
     y="-78.057167"
     id="text49" />
  <path
     style="font-size:12px;fill:url(#linearGradient2684);fill-opacity:1;fill-rule:evenodd;stroke:#000000;stroke-width:0.99999887"
     d="M 85.836012,292.4187 C 119.45178,265.8749 130.55724,259.40047 150.63665,239.93935 C 166.3281,223.94736 177.43922,189.59553 178.71036,169.71811 C 160.32932,177.27661 142.12468,187.14601 128.47242,203.09023 C 113.35951,219.63007 107.69847,253.76935 85.836012,292.4187 z"
     id="path61" />
  <path
     style="font-size:12px;fill:url(#linearGradient2686);fill-opacity:1;fill-rule:evenodd;stroke:#000000;stroke-width:0.99999845"
     d="M 69.59964,313.70945 C 93.817421,278.38112 102.4995,268.90109 115.89456,244.35544 C 126.12968,224.42537 126.53936,188.32363 121.85085,168.96529 C 106.54324,181.64087 92.090263,196.47074 83.788174,215.74968 C 74.26818,236.03109 78.999651,270.31155 69.59964,313.70945 z"
     id="path67" />
  <path
     style="font-size:12px;fill:url(#linearGradient2688);fill-opacity:1;fill-rule:evenodd;stroke:#000000;stroke-width:0.99999899"
     d="M 61.526476,329.23343 C 97.956003,306.70601 109.72873,301.54341 131.90103,284.505 C 149.3176,270.41141 164.28245,237.55476 167.81733,217.95291 C 148.69279,223.36084 129.47935,231.08469 114.09407,245.36391 C 97.189633,260.06788 87.663433,293.33634 61.526476,329.23343 z"
     id="path68" />
  <path
     style="font-size:12px;fill:url(#linearGradient2690);fill-opacity:1;fill-rule:evenodd;stroke:#000000;stroke-width:0.99999928"
     d="M 58.627297,352.68568 C 73.421094,312.48943 79.507389,301.16659 86.459997,274.08192 C 91.483764,252.24783 83.009415,217.15237 73.707634,199.53973 C 61.984228,215.58827 51.618631,233.51503 48.308617,254.24295 C 44.064381,276.24188 57.074692,308.30854 58.627297,352.68568 z"
     id="path69" />
  <path
     style="font-size:12px;fill:url(#linearGradient2692);fill-opacity:1;fill-rule:evenodd;stroke:#000000;stroke-width:0.99999899"
     d="M 45.009538,375.56097 C 79.355383,349.96882 90.637783,343.80788 111.25425,324.91663 C 127.38734,309.37026 139.45598,275.34301 141.2832,255.50896 C 122.69772,262.54982 104.22386,271.90561 90.130493,287.46132 C 74.560383,303.57151 67.945638,337.53891 45.009538,375.56097 z"
     id="path70" />
  <path
     style="font-size:12px;fill:url(#linearGradient2694);fill-opacity:1;fill-rule:evenodd;stroke:#000000;stroke-width:0.99999934"
     d="M 55.836193,400.80249 C 61.911187,358.40332 65.499194,346.05925 66.643442,318.11987 C 66.997651,295.71807 51.38235,263.16552 38.608165,247.88323 C 30.49399,266.02584 24.099857,285.72176 25.190666,306.68394 C 25.633224,329.08418 45.052118,357.72761 55.836193,400.80249 z"
     id="path71" />
  <path
     style="font-size:12px;fill:url(#linearGradient2696);fill-opacity:1;fill-rule:evenodd;stroke:#000000;stroke-width:1"
     d="M 50.875503,435.51129 C 76.600413,401.26475 85.684883,392.16956 100.13029,368.22694 C 111.21884,348.75876 113.19145,312.70857 109.3456,293.16534 C 93.503443,305.16619 78.421833,319.35631 69.292685,338.25769 C 58.903365,358.10785 62.145962,392.56109 50.875503,435.51129 z"
     id="path72" />
  <path
     style="font-size:12px;fill:url(#linearGradient2698);fill-opacity:1;fill-rule:evenodd;stroke:#000000;stroke-width:0.99999917"
     d="M 60.741657,447.9736 C 58.87343,405.1822 60.117491,392.38759 56.076752,364.71829 C 52.283347,342.63717 30.919105,313.53262 15.539825,300.87538 C 10.919615,320.20534 8.2769667,340.74385 13.224334,361.14303 C 17.800483,383.07532 42.180056,407.63494 60.741657,447.9736 z"
     id="path73" />
  <path
     style="font-size:12px;fill:url(#linearGradient2700);fill-opacity:1;fill-rule:evenodd;stroke:#000000;stroke-width:0.99999899"
     d="M 63.859924,489.08972 C 83.312653,450.92972 90.697793,440.40787 100.81089,414.33789 C 108.38655,393.25294 104.13065,357.40057 96.981463,338.80979 C 83.438943,353.35605 71.022097,369.92821 65.279195,390.11785 C 58.458036,411.45885 67.576849,444.84127 63.859924,489.08972 z"
     id="path74" />
  <path
     style="font-size:12px;fill:url(#linearGradient2702);fill-opacity:1;fill-rule:evenodd;stroke:#000000;stroke-width:0.99999905"
     d="M 78.713723,491.55054 C 68.481169,449.95861 67.189223,437.16875 57.795159,410.83114 C 49.740674,389.92442 23.078453,365.5804 5.5136164,356.18868 C 4.778114,376.04951 6.2189503,396.70715 15.074749,415.73812 C 23.867529,436.34524 52.594158,455.64081 78.713723,491.55054 z"
     id="path75" />
  <path
     style="font-size:12px;fill:url(#linearGradient2704);fill-opacity:1;fill-rule:evenodd;stroke:#000000;stroke-width:0.99999887"
     d="M 98.778869,522.73942 C 80.603366,483.95483 76.833024,471.66524 62.465553,447.6758 C 50.474748,428.74999 19.563344,410.09551 0.49999943,404.32345 C 3.6661259,423.94408 9.1224554,443.92013 21.531929,460.84961 C 34.188105,479.3371 66.135844,492.63673 98.778869,522.73942 z"
     id="path76" />
  <path
     style="font-size:12px;fill:url(#linearGradient2706);fill-opacity:1;fill-rule:evenodd;stroke:#000000;stroke-width:0.99999899"
     d="M 88.785653,532.23368 C 100.41516,491.01055 105.60433,479.24951 110.43391,451.70695 C 113.74796,429.54884 102.57541,395.21695 91.934773,378.37937 C 81.492263,395.28935 72.549244,413.9665 70.857918,434.88878 C 68.333833,457.15074 83.793603,488.11092 88.785653,532.23368 z"
     id="path77" />
  <path
     style="font-size:12px;fill:url(#linearGradient2708);fill-opacity:1;fill-rule:evenodd;stroke:#000000;stroke-width:0.99999982"
     d="M 133.13094,553.48487 C 106.62236,519.84127 100.15957,508.72902 80.719495,488.6292 C 64.74394,472.92098 30.40375,461.77385 10.52765,460.48188 C 18.066887,478.87085 27.917204,497.08584 43.847127,510.75482 C 60.371127,525.88507 94.50449,531.5819 133.13094,553.48487 z"
     id="path78" />
  <path
     style="font-size:12px;fill:url(#linearGradient2710);fill-opacity:1;fill-rule:evenodd;stroke:#000000;stroke-width:0.99999893"
     d="M 145.72223,578.86676 C 141.34429,536.25893 141.83484,523.41335 136.17619,496.02909 C 131.09261,474.20885 108.05607,446.40916 91.960034,434.67692 C 88.482956,454.24484 87.050999,474.9031 93.187775,494.97653 C 99.044005,516.60222 124.82377,539.68776 145.72223,578.86676 z"
     id="path79" />
  <path
     style="font-size:12px;fill:url(#linearGradient2712);fill-opacity:1;fill-rule:evenodd;stroke:#000000;stroke-width:0.99999923"
     d="M 171.79242,587.34262 C 139.71976,558.95355 131.38259,549.16881 108.67585,532.84942 C 90.159871,520.23497 54.384101,515.37699 34.595364,517.6428 C 45.286767,534.39654 58.221398,550.5678 76.329573,561.18368 C 95.282391,573.13178 129.88469,572.66327 171.79242,587.34262 z"
     id="path80" />
  <path
     style="font-size:12px;fill:url(#linearGradient2714);fill-opacity:1;fill-rule:evenodd;stroke:#000000;stroke-width:0.40934938"
     d="M 442.49245,225.76572 C 441.07638,208.27465 441.02831,197.1246 438.37571,185.97908 C 434.99606,175.32191 425.82864,169.12451 419.34948,164.17153 C 417.75573,172.15403 414.57352,183.95798 416.90672,192.23578 C 419.11159,201.14678 434.29048,209.52729 442.49245,225.76572 z"
     id="path82" />
  <path
     style="font-size:12px;fill:url(#linearGradient2716);fill-opacity:1;fill-rule:evenodd;stroke:#000000;stroke-width:0.40934926"
     d="M 442.38212,227.76121 C 432.51541,213.24945 426.96888,203.57671 419.15959,195.19375 C 410.95914,187.59442 399.92721,186.73084 391.84744,185.62228 C 394.40238,193.35097 397.46258,205.18714 403.57832,211.23391 C 409.89507,217.8947 427.23257,217.68895 442.38212,227.76121 z"
     id="path83" />
  <path
     style="font-size:12px;fill:url(#linearGradient2718);fill-opacity:1;fill-rule:evenodd;stroke:#000000;stroke-width:0.40934944"
     d="M 438.65889,229.70764 C 424.89206,218.82564 416.69846,211.26318 406.73344,205.61008 C 396.63043,200.82188 385.8478,203.3087 377.80776,204.6759 C 382.56425,211.28166 389.03535,221.65397 396.6838,225.58677 C 404.70827,230.04497 421.18496,224.64586 438.65889,229.70764 z"
     id="path84" />
  <path
     style="font-size:12px;fill:url(#linearGradient2720);fill-opacity:1;fill-rule:evenodd;stroke:#000000;stroke-width:0.40934938"
     d="M 466.56045,243.81672 C 465.14438,226.32565 465.09631,215.1756 462.44371,204.03008 C 459.06406,193.37291 449.89664,187.17551 443.41748,182.22253 C 441.82373,190.20503 438.64152,202.00898 440.97472,210.28678 C 443.17959,219.19778 458.35848,227.57829 466.56045,243.81672 z"
     id="path86" />
  <path
     style="font-size:12px;fill:url(#linearGradient2722);fill-opacity:1;fill-rule:evenodd;stroke:#000000;stroke-width:0.40934926"
     d="M 466.45012,245.81201 C 456.58341,231.30025 451.03688,221.62751 443.22759,213.24455 C 435.02714,205.64522 423.99521,204.78164 415.91544,203.67308 C 418.47038,211.40177 421.53058,223.23794 427.64632,229.28471 C 433.96307,235.9455 451.30057,235.73975 466.45012,245.81201 z"
     id="path87" />
  <path
     style="font-size:12px;fill:url(#linearGradient2724);fill-opacity:1;fill-rule:evenodd;stroke:#000000;stroke-width:0.40934944"
     d="M 464.73289,249.76404 C 450.96606,238.88204 442.77246,231.31958 432.80744,225.66648 C 422.70443,220.87828 411.9218,223.3651 403.88176,224.7323 C 408.63825,231.33806 415.10935,241.71037 422.7578,245.64317 C 430.78227,250.10137 447.25896,244.70226 464.73289,249.76404 z"
     id="path88" />
  <path
     style="font-size:12px;fill:url(#linearGradient2726);fill-opacity:1;fill-rule:evenodd;stroke:#000000;stroke-width:0.40934926"
     d="M 488.61144,267.89742 C 488.03325,250.35865 488.51832,239.21907 486.40161,227.95947 C 483.53535,217.15292 474.67472,210.5243 468.43977,205.26721 C 466.46619,213.16438 462.72328,224.80268 464.65805,233.18256 C 466.43436,242.18878 481.19521,251.28542 488.61144,267.89742 z"
     id="path89" />
  <path
     style="font-size:12px;fill:url(#linearGradient2728);fill-opacity:1;fill-rule:evenodd;stroke:#000000;stroke-width:0.40934893"
     d="M 488.40609,269.88502 C 479.24446,254.91813 474.16674,244.99127 466.76717,236.24452 C 458.93942,228.26181 447.96141,226.87176 439.9439,225.37817 C 442.1264,233.22017 444.61721,245.18911 450.43686,251.52137 C 456.42793,258.47655 473.75542,259.09997 488.40609,269.88502 z"
     id="path90" />
  <path
     style="font-size:12px;fill:url(#linearGradient2730);fill-opacity:1;fill-rule:evenodd;stroke:#000000;stroke-width:0.40934956"
     d="M 487.60196,273.65747 C 473.74901,262.88531 465.49551,255.38826 455.48584,249.8146 C 445.34507,245.10691 434.58256,247.67941 426.55364,249.11052 C 431.36253,255.67824 437.91592,265.99875 445.59541,269.8706 C 453.65509,274.26483 470.08832,268.73484 487.60196,273.65747 z"
     id="path91" />
  <path
     style="font-size:12px;fill:url(#linearGradient2732);fill-opacity:1;fill-rule:evenodd;stroke:#000000;stroke-width:0.40934917"
     d="M 508.24833,298.1725 C 508.87071,280.63523 510.11632,269.55488 508.77444,258.1769 C 506.65379,247.19964 498.26713,239.98069 492.40624,234.30959 C 489.89731,242.05334 485.36739,253.40849 486.72466,261.90105 C 487.88101,271.00766 501.98532,281.09228 508.24833,298.1725 z"
     id="path92" />
  <path
     style="font-size:12px;fill:url(#linearGradient2734);fill-opacity:1;fill-rule:evenodd;stroke:#000000;stroke-width:0.40934879"
     d="M 509.65448,299.03168 C 502.58823,282.96897 498.8912,272.44958 492.73476,262.78744 C 486.0513,253.82484 475.35984,250.97153 467.61592,248.41361 C 468.72431,256.47784 469.58337,268.67298 474.49884,275.73014 C 479.50045,283.42763 496.58681,286.3749 509.65448,299.03168 z"
     id="path93" />
  <path
     style="font-size:12px;fill:url(#linearGradient2736);fill-opacity:1;fill-rule:evenodd;stroke:#000000;stroke-width:0.40934899"
     d="M 505.99073,303.64885 C 493.24929,291.58242 485.76282,283.31936 476.34169,276.80006 C 466.706,271.12991 455.74457,272.64516 447.61464,273.28987 C 451.76304,280.29351 457.28328,291.2016 464.5505,295.80086 C 472.14537,300.95695 489.0379,297.04884 505.99073,303.64885 z"
     id="path94" />
  <path
     style="font-size:12px;fill:url(#linearGradient2738);fill-opacity:1;fill-rule:evenodd;stroke:#000000;stroke-width:0.40934905"
     d="M 523.81334,328.72656 C 526.38566,311.36781 528.85797,300.49522 528.79207,289.03857 C 527.90759,277.89339 520.37741,269.78502 515.18482,263.49626 C 511.82879,270.91228 506.062,281.69206 506.46466,290.28296 C 506.59924,299.46171 519.49222,311.05491 523.81334,328.72656 z"
     id="path95" />
  <path
     style="font-size:12px;fill:url(#linearGradient2740);fill-opacity:1;fill-rule:evenodd;stroke:#000000;stroke-width:0.40934896"
     d="M 523.25547,330.64523 C 516.92254,314.2795 513.70481,303.60374 507.99142,293.67317 C 501.71994,284.4176 491.16838,281.0839 483.54801,278.17853 C 484.29073,286.28462 484.59764,298.50614 489.18908,305.7783 C 493.83762,313.69402 510.77329,317.41066 523.25547,330.64523 z"
     id="path96" />
  <path
     style="font-size:12px;fill:url(#linearGradient2742);fill-opacity:1;fill-rule:evenodd;stroke:#000000;stroke-width:0.40934932"
     d="M 521.1955,334.70854 C 509.27068,321.83445 502.34078,313.09934 493.36628,305.9777 C 484.12214,299.68936 473.08503,300.48428 464.93032,300.59576 C 468.61168,307.85577 473.40653,319.10161 480.35732,324.16642 C 487.59865,329.8083 504.7107,327.01365 521.1955,334.70854 z"
     id="path97" />
  <path
     style="font-size:12px;fill:url(#linearGradient2744);fill-opacity:1;fill-rule:evenodd;stroke:#000000;stroke-width:0.40934935"
     d="M 527.20003,370.01016 C 533.98091,353.82487 539.06255,343.9 541.82892,332.78216 C 543.72514,321.76391 538.43143,312.04663 534.95334,304.67003 C 529.86927,311.02714 521.61819,320.04821 519.88608,328.47232 C 517.749,337.39983 527.37841,351.81875 527.20003,370.01016 z"
     id="path98" />
  <path
     style="font-size:12px;fill:url(#linearGradient2746);fill-opacity:1;fill-rule:evenodd;stroke:#000000;stroke-width:0.4093487"
     d="M 529.41946,363.70813 C 525.64922,346.56965 524.09257,335.52871 519.95597,324.84475 C 515.1651,314.74304 505.24331,309.84336 498.15345,305.81283 C 497.65469,313.93757 496.09929,326.06357 499.53132,333.94943 C 502.92189,342.48003 519.0953,348.72915 529.41946,363.70813 z"
     id="path99" />
  <path
     style="font-size:12px;fill:url(#linearGradient2748);fill-opacity:1;fill-rule:evenodd;stroke:#000000;stroke-width:0.40934914"
     d="M 524.23724,369.14775 C 514.81249,354.34516 509.56009,344.50962 502.00707,335.89505 C 494.03943,328.05197 483.03854,326.8562 474.99586,325.50456 C 477.31664,333.30675 480.01862,345.22977 485.94929,351.45816 C 492.06237,358.30635 509.39821,358.62338 524.23724,369.14775 z"
     id="path100" />
  <path
     style="font-size:12px;fill:url(#linearGradient2750);fill-opacity:1;fill-rule:evenodd;stroke:#000000;stroke-width:0.40934935"
     d="M 529.26548,404.06314 C 538.80986,389.33737 545.57143,380.47132 550.26608,370.02051 C 554.08671,359.51336 550.60066,349.01113 548.48623,341.13453 C 542.35514,346.48898 532.6347,353.90335 529.43575,361.88661 C 525.74894,370.29345 532.66793,386.19186 529.26548,404.06314 z"
     id="path101" />
  <path
     style="font-size:12px;fill:url(#linearGradient2752);fill-opacity:1;fill-rule:evenodd;stroke:#000000;stroke-width:0.40934849"
     d="M 534.2747,403.88714 C 533.5258,386.35485 533.90241,375.21109 531.67621,363.97265 C 528.70489,353.19453 519.78017,346.6525 513.49436,341.45638 C 511.59776,349.37238 507.96833,361.04656 509.98457,369.40719 C 511.84846,378.39568 526.69714,387.34816 534.2747,403.88714 z"
     id="path102" />
  <path
     style="font-size:12px;fill:url(#linearGradient2754);fill-opacity:1;fill-rule:evenodd;stroke:#000000;stroke-width:0.40934896"
     d="M 529.07295,403.76596 C 521.39896,387.98456 517.30326,377.61389 510.78263,368.19367 C 503.76206,359.49258 492.9695,357.04925 485.13361,354.78864 C 486.54888,362.8047 487.87261,374.95818 493.05378,381.82267 C 498.34545,389.32372 515.53185,391.61697 529.07295,403.76596 z"
     id="path103" />
  <path
     style="font-size:12px;fill:url(#linearGradient2756);fill-opacity:1;fill-rule:evenodd;stroke:#000000;stroke-width:0.40934926"
     d="M 525.20896,440.19027 C 536.32864,426.6147 544.03239,418.55381 549.85787,408.68857 C 554.82097,398.67033 552.52199,387.8461 551.29477,379.7835 C 544.60731,384.42444 534.12409,390.71424 530.05892,398.29317 C 525.4619,406.23892 530.57374,422.80698 525.20896,440.19027 z"
     id="path104" />
  <path
     style="font-size:12px;fill:url(#linearGradient2758);fill-opacity:1;fill-rule:evenodd;stroke:#000000;stroke-width:0.40934873"
     d="M 524.7205,441.47748 C 528.6574,424.37648 531.98171,413.73342 532.82195,402.30745 C 532.82154,391.12724 525.95611,382.44885 521.27707,375.76921 C 517.34512,382.89664 510.74399,393.18668 510.46607,401.78251 C 509.87442,410.94315 521.81029,423.5195 524.7205,441.47748 z"
     id="path105" />
  <path
     style="font-size:12px;fill:url(#linearGradient2760);fill-opacity:1;fill-rule:evenodd;stroke:#000000;stroke-width:0.40934846"
     d="M 519.34076,438.50559 C 515.92012,421.29394 514.5885,410.22363 510.6702,399.45769 C 506.08592,389.26057 496.2659,384.15996 489.25954,379.98596 C 488.59552,388.09885 486.79365,400.19067 490.06446,408.14473 C 493.28072,416.74257 509.32359,423.31959 519.34076,438.50559 z"
     id="path106" />
  <path
     style="font-size:12px;fill:url(#linearGradient2762);fill-opacity:1;fill-rule:evenodd;stroke:#000000;stroke-width:0.40934864"
     d="M 512.82917,476.1314 C 526.76811,465.4708 536.11648,459.39352 544.05091,451.12892 C 551.18111,442.51746 551.42817,431.45455 552.08445,423.32555 C 544.51027,426.30749 532.8632,430.02296 527.16688,436.46637 C 520.86871,443.14472 522.04094,460.44376 512.82917,476.1314 z"
     id="path107" />
  <path
     style="font-size:12px;fill:url(#linearGradient2764);fill-opacity:1;fill-rule:evenodd;stroke:#000000;stroke-width:0.40934879"
     d="M 512.86577,476.70342 C 520.30556,460.81026 525.79046,451.10245 529.01105,440.10761 C 531.35812,429.17653 526.46791,419.25007 523.29568,411.73687 C 517.95486,417.87983 509.3403,426.55445 507.26373,434.90031 C 504.76185,443.73253 513.79102,458.5347 512.86577,476.70342 z"
     id="path108" />
  <path
     style="font-size:12px;fill:url(#linearGradient2766);fill-opacity:1;fill-rule:evenodd;stroke:#000000;stroke-width:0.40934873"
     d="M 508.38408,472.36496 C 509.01379,454.82798 510.26403,443.74816 508.92692,432.36963 C 506.81085,421.3915 498.42722,414.16905 492.56871,408.49551 C 490.05655,416.23819 485.52188,427.59143 486.87559,436.08454 C 488.02814,445.19163 502.12822,455.28214 508.38408,472.36496 z"
     id="path109" />
  <path
     style="font-size:12px;fill:url(#linearGradient2768);fill-opacity:1;fill-rule:evenodd;stroke:#000000;stroke-width:0.40934876"
     d="M 493.72948,507.22204 C 509.4243,499.37258 519.74863,495.16149 529.09553,488.53623 C 537.71777,481.41908 540.0406,470.59994 542.21368,462.73933 C 534.21392,464.24389 522.07598,465.70305 515.26971,470.96044 C 507.82814,476.33541 505.72669,493.54632 493.72948,507.22204 z"
     id="path110" />
  <path
     style="font-size:12px;fill:url(#linearGradient2770);fill-opacity:1;fill-rule:evenodd;stroke:#000000;stroke-width:0.40934816"
     d="M 494.88293,508.97235 C 503.85066,493.88853 510.26429,484.76764 514.55127,474.14312 C 517.96269,463.4961 514.07311,453.13659 511.65566,445.3477 C 505.73624,450.93523 496.30983,458.71996 493.42201,466.82094 C 490.06308,475.36405 497.5917,490.98291 494.88293,508.97235 z"
     id="path111" />
  <path
     style="font-size:12px;fill:url(#linearGradient2772);fill-opacity:1;fill-rule:evenodd;stroke:#000000;stroke-width:0.40934888"
     d="M 487.5293,501.40896 C 491.5572,484.32919 494.93814,473.70399 495.8392,462.28265 C 495.89831,451.1026 489.07918,442.38776 484.43576,435.68329 C 480.46592,442.78967 473.81009,453.0444 473.4864,461.63863 C 472.846,470.79598 484.71475,483.43574 487.5293,501.40896 z"
     id="path112" />
  <path
     style="font-size:12px;fill:#666666;fill-opacity:1;fill-rule:evenodd;stroke:#000000"
     d="M 494.18406,506.55694 C 473.36306,537.04294 442.01606,566.82294 423.83106,581.73994 C 406.64806,596.65594 365.37206,611.54294 322.85906,618.77894 C 279.56706,627.14994 256.54306,639.16594 217.79606,656.04294 L 216.40306,650.13694 C 255.54006,633.14994 278.56406,621.13394 321.85606,612.76294 C 364.36906,605.52694 405.64506,590.63994 422.82806,575.72394 C 441.01306,560.80694 472.36006,531.02694 492.96506,499.97394 C 493.59006,503.28694 494.18406,505.36794 494.18406,506.55694 z"
     id="path129" />
  <path
     style="font-size:12px;fill:url(#linearGradient2774);fill-opacity:1;fill-rule:evenodd;stroke:#000000;stroke-width:0.40934888"
     d="M 469.65754,535.23657 C 486.56295,530.53033 497.50166,528.36937 507.94218,523.65196 C 517.76537,518.31326 522.11246,508.13722 525.74733,500.83659 C 517.60747,500.78501 505.41433,499.89824 497.72898,503.75839 C 489.39757,507.61257 484.04659,524.10494 469.65754,535.23657 z"
     id="path113" />
  <path
     style="font-size:12px;fill:url(#linearGradient2776);fill-opacity:1;fill-rule:evenodd;stroke:#000000;stroke-width:0.40934816"
     d="M 473.73658,531.72261 C 484.60645,517.94626 492.16169,509.74604 497.80602,499.77607 C 502.58533,489.6689 500.08905,478.8885 498.71479,470.84969 C 492.11323,475.61199 481.74664,482.09219 477.82057,489.74407 C 473.36943,497.77243 478.78299,514.2443 473.73658,531.72261 z"
     id="path114" />
  <path
     style="font-size:12px;fill:url(#linearGradient2778);fill-opacity:1;fill-rule:evenodd;stroke:#000000;stroke-width:0.40934911"
     d="M 465.74394,532.76893 C 471.97869,516.36554 476.72492,506.27598 479.11722,495.07169 C 480.64318,483.9961 475.02685,474.46165 471.30355,467.20573 C 466.43535,473.72961 458.49117,483.02208 457.04231,491.49949 C 455.20555,500.4936 465.31269,514.58176 465.74394,532.76893 z"
     id="path115" />
  <path
     style="font-size:12px;fill:url(#linearGradient2780);fill-opacity:1;fill-rule:evenodd;stroke:#000000;stroke-width:0.40934893"
     d="M 447.24721,563.65197 C 464.4219,560.0503 475.47759,558.60221 486.20169,554.57077 C 496.34998,549.87938 501.34693,540.00618 505.44694,532.95626 C 497.3275,532.37769 485.21737,530.70322 477.29817,534.05761 C 468.73467,537.36421 462.32691,553.47546 447.24721,563.65197 z"
     id="path117" />
  <path
     style="font-size:12px;fill:url(#linearGradient2782);fill-opacity:1;fill-rule:evenodd;stroke:#000000;stroke-width:0.40934825"
     d="M 447.258,564.79746 C 460.4156,553.18627 469.31511,546.46882 476.65087,537.66852 C 483.16007,528.57858 482.63125,517.52558 482.71624,509.3706 C 475.36965,512.876 464.01157,517.39855 458.7808,524.22529 C 452.96612,531.32857 455.34776,548.50288 447.258,564.79746 z"
     id="path118" />
  <path
     style="font-size:12px;fill:url(#linearGradient2784);fill-opacity:1;fill-rule:evenodd;stroke:#000000;stroke-width:0.40934914"
     d="M 442.85176,560.34461 C 451.91855,545.32007 458.39205,536.24154 462.74883,525.64543 C 466.23022,515.02106 462.40886,504.63617 460.04269,496.83152 C 454.08663,502.38001 444.60919,510.10258 441.66814,518.18441 C 438.25307,526.70526 445.67882,542.37334 442.85176,560.34461 z"
     id="path119" />
  <path
     style="font-size:12px;fill:url(#linearGradient2786);fill-opacity:1;fill-rule:evenodd;stroke:#000000;stroke-width:0.40934917"
     d="M 418.75361,586.02319 C 436.30085,585.83207 447.42702,586.56277 458.73057,584.69499 C 469.59773,582.06783 476.42022,573.35559 481.81359,567.23814 C 473.96189,565.09082 462.40901,561.09206 453.98849,562.84148 C 444.94527,564.41867 435.52518,578.97525 418.75361,586.02319 z"
     id="path120" />
  <path
     style="font-size:12px;fill:url(#linearGradient2788);fill-opacity:1;fill-rule:evenodd;stroke:#000000;stroke-width:0.40934828"
     d="M 417.16096,584.67969 C 431.68537,574.83164 441.36521,569.29756 449.75819,561.49907 C 457.36805,553.3084 458.2458,542.27763 459.36473,534.19933 C 451.63278,536.74434 439.7927,539.78933 433.73808,545.89728 C 427.06918,552.20545 427.25266,569.54314 417.16096,584.67969 z"
     id="path121" />
  <path
     style="font-size:12px;fill:url(#linearGradient66);fill-opacity:1;fill-rule:evenodd;stroke:#000000;stroke-width:0.40934953"
     d="M 412.68848,584.31489 C 423.15316,570.22821 430.46677,561.81172 435.81879,551.6818 C 440.30216,541.43989 437.49343,530.73661 435.88596,522.74114 C 429.42566,527.69342 419.25186,534.47237 415.54996,542.23521 C 411.33417,550.38964 417.22449,566.69716 412.68848,584.31489 z"
     id="path122" />
  <path
     style="font-size:12px;fill:#ffffff;fill-opacity:1;fill-rule:evenodd;stroke:#000000;stroke-width:0.57768071"
     d="M 113.51647,369.57779 L 210.84646,369.28079 L 210.90152,364.56379 L 113.51647,364.56379 L 113.51647,369.57779 z"
     id="path169"
     sodipodi:fill-cmyk="(0 0 0 0)" />
  <path
     style="font-size:12px;fill:#ffffff;fill-opacity:1;fill-rule:evenodd;stroke:#000000;stroke-width:0.58490515"
     d="M 114.14373,406.23179 L 213.92333,405.93479 L 213.97978,401.21779 L 114.14373,401.21779 L 114.14373,406.23179 z"
     id="path171"
     sodipodi:fill-cmyk="(0 0 0 0)" />
  <path
     style="font-size:12px;fill:#ffffff;fill-opacity:1;fill-rule:evenodd;stroke:#000000;stroke-width:0.61596185"
     d="M 288.31706,602.73858 L 288.31706,492.01906 L 283.74906,491.36458 L 283.30306,602.73858 L 288.31706,602.73858 z"
     id="path175"
     sodipodi:fill-cmyk="(0 0 0 0)" />
  <path
     style="font-size:12px;fill:#ffffff;fill-opacity:1;fill-rule:evenodd;stroke:#000000;stroke-width:0.59120935"
     d="M 181.08232,539.7491 L 239.28173,458.84768 L 235.4152,455.96044 L 176.93719,536.72861 L 181.08232,539.7491 z"
     id="path172"
     sodipodi:fill-cmyk="(0 0 0 0)" />
  <g
     id="g160"
     transform="translate(280.89006,-153.26877)"
     style="font-size:12px">
    <path
       style="fill:url(#linearGradient147);fill-opacity:1;fill-rule:evenodd;stroke:#000000;stroke-width:1px;stroke-linecap:butt;stroke-linejoin:miter;stroke-opacity:1"
       d="M -203.551,350.21 C -203.551,408.333 -166.935,455.505 -121.821,455.505 C -76.706,455.505 -40.0908,408.333 -40.0908,350.21 C -40.0908,292.087 -76.706,244.915 -121.821,244.915 C -166.935,244.915 -203.551,292.087 -203.551,350.21 z M -4.99068,348.71 C -4.99068,430.36 -19.3734,500.372 -122.321,496.626 C -187.086,496.626 -239.649,430.36 -239.649,348.71 C -239.649,267.059 -187.086,200.793 -122.321,200.793 C -17.6767,203.11 -4.99068,267.059 -4.99068,348.71 z"
       id="path145"
       transform="matrix(0.90856,-0.382081,0.376894,0.949586,-26.2298,172.011)" />
    <path
       style="fill:#bfbfbf;fill-opacity:1;fill-rule:evenodd;stroke:#000000;stroke-width:1px;stroke-linecap:butt;stroke-linejoin:miter;stroke-opacity:1"
       d="M -4.99068,348.71 C -4.99068,430.36 -57.5544,496.626 -122.321,496.626 C -187.086,496.626 -239.649,430.36 -239.649,348.71 C -239.649,267.059 -187.086,200.793 -122.321,200.793 C -57.5544,200.793 -4.99068,267.059 -4.99068,348.71 z M -203.551,350.21 C -203.551,408.333 -166.935,455.505 -121.821,455.505 C -76.706,455.505 -40.0908,408.333 -40.0908,350.21 C -40.0908,292.087 -76.706,244.915 -121.821,244.915 C -166.935,244.915 -203.551,292.087 -203.551,350.21 z"
       id="path146"
       transform="matrix(0.90856,-0.382081,0.376894,0.949586,-7.17619,164.991)"
       sodipodi:fill-cmyk="(0 0 0 0.25)" />
  </g>
  <path
     style="font-size:12px;fill:#ffffff;fill-opacity:1;fill-rule:evenodd;stroke:#000000;stroke-width:1.00228739"
     d="M 283.9217,196.94277 L 283.9217,490.10031 L 288.4897,491.83321 L 288.9357,196.94277 L 283.9217,196.94277 z"
     id="path165"
     sodipodi:fill-cmyk="(0 0 0 0)" />
  <path
     style="font-size:12px;fill:#ffffff;fill-opacity:1;fill-rule:evenodd;stroke:#000000;stroke-width:0.94685006"
     d="M 472.45243,364.41479 L 210.97554,364.71179 L 210.82761,369.42879 L 472.45243,369.42879 L 472.45243,364.41479 z"
     id="path166"
     sodipodi:fill-cmyk="(0 0 0 0)" />
  <path
     style="font-size:12px;fill:#ffffff;fill-opacity:1;fill-rule:evenodd;stroke:#000000;stroke-width:0.93752921"
     d="M 471.4487,400.51579 L 214.50379,401.40679 L 215.24651,405.79379 L 471.4487,405.52979 L 471.4487,400.51579 z"
     id="path167"
     sodipodi:fill-cmyk="(0 0 0 0)" />
  <path
     style="font-size:12px;fill:#ffffff;fill-opacity:1;fill-rule:evenodd;stroke:#000000;stroke-width:0.96902424"
     d="M 392.34793,238.94903 L 237.95832,453.01756 L 240.97661,457.17056 L 396.49307,241.96952 L 392.34793,238.94903 z"
     id="path173"
     sodipodi:fill-cmyk="(0 0 0 0)" />
  <path
     style="font-size:12px;fill:#7f7f7f;fill-opacity:1;fill-rule:evenodd;stroke:#000000"
     id="path125"
     d="" />
  <path
     style="font-size:12px;fill:#7f7f7f;fill-opacity:1;fill-rule:evenodd;stroke:#000000"
     id="path126"
     d="" />
  <path
     id="path136"
     d="M 357.96626,618.93443 C 364.62826,625.54543 368.73626,630.01743 375.76926,632.13443 C 384.22326,634.87843 390.87026,632.57343 399.92026,632.44043 L 401.08226,645.32843 C 390.05126,644.86443 382.17526,645.58943 371.63226,643.22243 C 368.66026,642.38643 361.04326,641.40143 357.96626,635.63343 L 357.96626,618.93443 z"
     style="font-size:12px;fill:url(#linearGradient2790);fill-opacity:1;fill-rule:evenodd;stroke:#000000" />
  <path
     id="path140"
     d="M 375.67806,621.60863 C 369.01606,628.21963 370.92406,620.65763 363.89106,622.77463 C 355.43706,625.51863 365.50406,615.86063 357.79106,622.41263 L 357.96606,635.30163 C 360.97506,632.83063 365.06406,633.40563 366.02206,633.86263 C 371.04406,635.58763 372.60206,636.05363 376.34706,635.63363 L 375.67806,621.60863 z"
     style="font-size:12px;fill:url(#linearGradient2792);fill-opacity:1;fill-rule:evenodd;stroke:#000000" />
  <path
     id="path134"
     d="M 300.9453,613.08123 C 305.1909,613.55923 319.3685,615.98423 323.62706,616.02023 C 335.3962,616.12023 336.62775,615.54423 348.29781,617.05723 C 357.69368,618.27523 365.59688,615.77523 375.92798,621.96623 L 376.2104,634.68823 C 367.53216,630.36023 357.7622,631.41223 347.00608,631.34223 C 336.33884,632.02823 326.46147,629.44223 316.37204,629.52223 C 312.11349,629.56523 305.1909,627.30423 300.9453,627.78123 L 300.9453,613.08123 z"
     style="font-size:12px;fill:url(#linearGradient2794);fill-opacity:1;fill-rule:evenodd;stroke:#000000;stroke-width:0.96227592" />
  <path
     id="path141"
     d="M 228.40406,618.26593 C 221.74206,624.87693 217.63406,629.34893 210.60106,631.46593 C 202.14706,634.20993 195.50006,631.90493 186.45006,631.77193 L 185.28806,644.65993 C 196.31906,644.19593 204.19506,644.92093 214.73806,642.55393 C 217.71006,641.71793 225.32706,640.73293 228.40406,634.96493 L 228.40406,618.26593 z"
     style="font-size:12px;fill:url(#linearGradient2796);fill-opacity:1;fill-rule:evenodd;stroke:#000000" />
  <path
     id="path142"
     d="M 210.69206,620.94003 C 217.35406,627.55103 215.44606,619.98903 222.47906,622.10603 C 230.93306,624.85003 220.86606,615.19203 228.57906,621.74403 L 228.40406,634.63303 C 225.39506,632.16203 221.30606,632.73703 220.34806,633.19403 C 215.32606,634.91903 213.76806,635.38503 210.02306,634.96503 L 210.69206,620.94003 z"
     style="font-size:12px;fill:url(#linearGradient138);fill-opacity:1;fill-rule:evenodd;stroke:#000000" />
  <path
     style="font-size:12px;fill:url(#linearGradient209);fill-opacity:1;fill-rule:evenodd;stroke:#000000;stroke-width:0.73805422"
     d="M 282.19284,116.13177 C 266.37391,115.59258 218.47351,123.74491 214.87977,127.10092 C 208.18585,123.51573 201.58373,118.85514 196.60552,111.54757 C 191.45912,104.62269 188.79007,96.097305 190.31555,88.493806 C 191.76245,77.566188 203.72397,71.428951 212.60219,74.362217 C 219.03391,76.207467 221.84838,78.46063 226.73772,83.779074 C 228.59078,78.705378 230.02225,74.756038 234.08899,70.200021 C 239.47336,63.821003 250.36402,62.176743 258.4292,64.511489 C 265.14589,65.990359 274.67118,72.930071 278.31927,82.918006 C 281.7125,92.905942 283.75579,116.02423 282.19284,116.13177 z"
     id="path205" />
  <path
     id="path143"
     d="M 285.42432,612.41263 C 281.17873,612.89063 267.00113,615.31563 262.74257,615.35163 C 250.97342,615.45163 249.74188,614.87563 238.07181,616.38863 C 228.67595,617.60663 220.77275,615.10663 210.44165,621.29763 L 210.15922,634.01963 C 218.83746,629.69163 228.60742,630.74363 239.36355,630.67363 C 250.03078,631.35963 259.90816,628.77363 269.99758,628.85363 C 274.25614,628.89663 281.17873,626.63563 285.42432,627.11263 L 285.42432,612.41263 z"
     style="font-size:12px;fill:url(#linearGradient139);fill-opacity:1;fill-rule:evenodd;stroke:#000000;stroke-width:0.96227592" />
  <rect
     style="font-size:12px;fill:url(#linearGradient152);fill-opacity:1;stroke:#000000"
     id="rect151"
     x="280.6113"
     y="610.06897"
     width="23.399172"
     height="20.056433"
     rx="9.3596678"
     ry="4.6798339" />
  <path
     style="font-size:12px;fill:url(#linearGradient217);fill-opacity:1;fill-rule:evenodd;stroke:#000000;stroke-width:0.73805422"
     d="M 286.07298,115.43667 C 301.89191,114.89748 349.79231,123.04981 353.38606,126.40582 C 360.07998,122.82063 366.68209,118.16004 371.66031,110.85247 C 376.80671,103.92759 379.47576,95.402205 377.95027,87.798706 C 376.50337,76.871088 364.54186,70.733851 355.66364,73.667117 C 349.23192,75.512367 346.41744,77.76553 341.5281,83.083974 C 339.67505,78.010278 338.24357,74.060938 334.17683,69.504921 C 328.79246,63.125903 317.9018,61.481643 309.83663,63.816389 C 303.11994,65.295259 293.59465,72.234971 289.94656,82.222906 C 286.55332,92.210842 284.51004,115.32913 286.07298,115.43667 z"
     id="path213" />
  <path
     style="font-size:12px;fill:url(#linearGradient129);fill-opacity:1;fill-rule:evenodd;stroke:#000000"
     d="M 357.30706,125.06583 C 355.17406,123.82583 357.00706,124.75683 354.01406,123.43483 C 382.15806,109.13083 386.53006,97.68883 389.71806,91.55283 C 396.09406,79.62583 395.52706,65.13083 383.95606,58.55883 C 372.38306,52.33383 360.36406,62.52283 351.83106,75.18483 C 343.29806,88.19483 338.90106,103.01283 333.92706,116.91683 C 329.34106,116.19283 330.38006,116.57583 328.37806,116.27183 C 331.95806,101.49683 340.61706,78.99283 335.44306,58.22183 C 329.92106,37.45083 306.36106,39.68083 297.96206,57.51083 C 289.56306,74.99383 286.37506,105.71483 285.77606,113.83683 C 281.89406,114.02483 284.01006,113.70883 281.88206,113.85383 C 279.36306,92.80183 280.10306,85.47783 270.08706,59.95883 C 259.60906,33.59083 229.09206,38.56683 229.59406,65.94083 C 230.44406,91.69283 236.43806,103.36583 241.29306,118.25583 C 238.30606,118.84983 240.17406,118.23383 236.70306,119.23183 C 229.61506,102.96683 220.60406,83.35783 210.77306,69.29183 C 200.94306,55.57383 182.34306,53.27583 176.33206,63.20683 C 170.32106,73.83383 173.69406,85.08383 180.30006,93.99983 C 186.90706,102.91483 189.18606,106.98183 213.44506,124.70983 C 212.68306,125.06083 210.26806,125.05583 210.10706,125.36283 C 200.99306,120.52883 181.12106,107.68483 174.34306,97.83183 C 167.33606,88.49483 163.70206,76.99983 165.77906,66.74783 C 167.74906,52.01383 184.03506,43.73883 196.12306,47.69383 C 204.88006,50.18183 215.33706,56.03183 221.52006,74.44883 C 219.78506,54.95583 224.07106,46.32483 229.63706,40.20783 C 235.54806,33.48083 248.95706,30.79483 258.51806,33.00583 C 267.66306,34.99983 278.39106,43.64583 283.70606,59.22983 C 289.02106,44.16683 299.74906,35.52083 308.89406,33.52683 C 318.45506,31.31583 330.29206,34.34683 338.12306,41.42383 C 343.95806,47.08583 349.82706,57.79383 345.89206,74.96983 C 352.07506,56.55283 362.53206,50.70283 371.28906,48.21483 C 383.37706,44.25983 400.01106,53.22983 401.63306,67.26883 C 403.71006,77.52083 400.07606,89.01583 393.06906,98.35283 C 386.05906,107.04783 378.00506,116.18383 357.30706,125.06583 z"
     id="path128" />
  <g
     id="g173"
     transform="translate(-51.583547,-81.5326)"
     style="font-size:12px">
    <path
       style="fill:#848484;fill-opacity:1;fill-rule:evenodd;stroke:#000000;stroke-width:1px;stroke-linecap:butt;stroke-linejoin:miter;stroke-opacity:1"
       d="M 403.185,169.73 L 373.296,169.73 L 373.296,177.608 L 403.185,177.608 L 403.185,169.73 z M 384.533,158.492 L 384.533,188.381 L 392.411,188.381 L 392.411,158.492 L 384.533,158.492 z"
       id="path168"
       transform="translate(-52.8261,-76.4594)"
       sodipodi:fill-cmyk="(0 0 0 0.48125)" />
    <path
       transform="matrix(1.15,0,0,1.15384,-115.895,-107.722)"
       style="fill:url(#linearGradient2798);fill-opacity:1;fill-rule:evenodd;stroke:#000000;stroke-width:1px;stroke-linecap:butt;stroke-linejoin:miter;stroke-opacity:1"
       d="M 397.276,177.607 C 397.276,180.101 395.2,182.125 392.642,182.125 C 390.085,182.125 388.009,180.101 388.009,177.607 C 388.009,175.113 390.085,173.089 392.642,173.089 C 395.2,173.089 397.276,175.113 397.276,177.607 z"
       id="path170" />
  </g>
  <path
     style="font-size:12px;fill:#5c5c5c;fill-opacity:1;fill-rule:evenodd;stroke:#000000;stroke-width:0.99999982"
     d="M 265.43685,42.977458 L 277.01831,36.26606 L 284.14966,24.567728 L 290.86106,36.149188 L 302.5594,43.280544 L 290.97794,49.991942 L 283.84658,61.690274 L 277.13518,50.108815 L 265.43685,42.977458 z"
     id="path131"
     sodipodi:fill-cmyk="(0 0 0 0.638767)" />
  <g
     id="g154"
     transform="translate(-104.64174,-78.520554)"
     style="font-size:12px">
    <path
       style="fill:#ffffff;fill-opacity:1;fill-rule:evenodd;stroke:#000000;stroke-width:1px;stroke-linecap:butt;stroke-linejoin:miter;stroke-opacity:1"
       d="M 403.185,169.73 L 373.296,169.73 L 373.296,177.608 L 403.185,177.608 L 403.185,169.73 z M 384.533,158.492 L 384.533,188.381 L 392.411,188.381 L 392.411,158.492 L 384.533,158.492 z"
       id="path138" />
    <path
       transform="matrix(1.15,0,0,1.15384,-63.0685,-31.263)"
       style="fill:url(#linearGradient2800);fill-opacity:1;fill-rule:evenodd;stroke:#000000;stroke-width:1px;stroke-linecap:butt;stroke-linejoin:miter;stroke-opacity:1"
       d="M 397.276,177.607 C 397.276,180.101 395.2,182.125 392.642,182.125 C 390.085,182.125 388.009,180.101 388.009,177.607 C 388.009,175.113 390.085,173.089 392.642,173.089 C 395.2,173.089 397.276,175.113 397.276,177.607 z"
       id="path147" />
  </g>
  <g
     id="g157"
     transform="translate(-155.84594,-75.97191)"
     style="font-size:12px">
    <path
       style="fill:#ffffff;fill-opacity:1;fill-rule:evenodd;stroke:#000000;stroke-width:1px;stroke-linecap:butt;stroke-linejoin:miter;stroke-opacity:1"
       d="M 403.185,169.73 L 373.296,169.73 L 373.296,177.608 L 403.185,177.608 L 403.185,169.73 z M 384.533,158.492 L 384.533,188.381 L 392.411,188.381 L 392.411,158.492 L 384.533,158.492 z"
       id="path158" />
    <path
       transform="matrix(1.15,0,0,1.15384,-63.0685,-31.263)"
       style="fill:url(#linearGradient2802);fill-opacity:1;fill-rule:evenodd;stroke:#000000;stroke-width:1px;stroke-linecap:butt;stroke-linejoin:miter;stroke-opacity:1"
       d="M 397.276,177.607 C 397.276,180.101 395.2,182.125 392.642,182.125 C 390.085,182.125 388.009,180.101 388.009,177.607 C 388.009,175.113 390.085,173.089 392.642,173.089 C 395.2,173.089 397.276,175.113 397.276,177.607 z"
       id="path159" />
  </g>
  <g
     id="g161"
     transform="translate(-51.815237,-77.362083)"
     style="font-size:12px">
    <path
       style="fill:#ffffff;fill-opacity:1;fill-rule:evenodd;stroke:#000000;stroke-width:1px;stroke-linecap:butt;stroke-linejoin:miter;stroke-opacity:1"
       d="M 403.185,169.73 L 373.296,169.73 L 373.296,177.608 L 403.185,177.608 L 403.185,169.73 z M 384.533,158.492 L 384.533,188.381 L 392.411,188.381 L 392.411,158.492 L 384.533,158.492 z"
       id="path162" />
    <path
       transform="matrix(1.15,0,0,1.15384,-63.0685,-31.263)"
       style="fill:url(#linearGradient140);fill-opacity:1;fill-rule:evenodd;stroke:#000000;stroke-width:1px;stroke-linecap:butt;stroke-linejoin:miter;stroke-opacity:1"
       d="M 397.276,177.607 C 397.276,180.101 395.2,182.125 392.642,182.125 C 390.085,182.125 388.009,180.101 388.009,177.607 C 388.009,175.113 390.085,173.089 392.642,173.089 C 395.2,173.089 397.276,175.113 397.276,177.607 z"
       id="path163" />
  </g>
  <path
     style="font-size:12px;fill:url(#linearGradient197);fill-opacity:1;fill-rule:evenodd;stroke:#000000;stroke-width:0.94207889"
     d="M 358.82796,127.34961 C 347.59577,119.79269 318.30021,116.17072 280.86178,116.23257 C 243.42336,116.29442 218.30625,121.89089 210.13876,128.10774 C 210.58861,131.72315 213.47053,139.39253 215.31068,143.00793 C 223.28307,139.19105 243.88458,132.73992 281.25671,132.69588 C 318.62884,132.65089 340.07892,137.81348 354.22807,142.7015 C 355.18176,140.3259 359.14807,129.37754 358.82796,127.34961 z"
     id="path201" />
  <path
     style="font-size:12px;fill:url(#linearGradient2804);fill-opacity:1;fill-rule:evenodd;stroke:#000000"
     d="M 359.98706,126.77483 C 356.20106,119.20583 323.06506,113.73383 283.53406,113.79983 C 244.00306,113.86583 211.61006,119.34283 208.98006,126.96583 L 209.99806,129.68583 C 212.54506,122.27483 244.49006,117.32183 283.95106,117.27483 C 323.41206,117.22683 355.29306,121.79283 358.85806,129.23483 L 359.98706,126.77483 z"
     id="path192" />
  <path
     style="font-size:12px;fill:url(#linearGradient254);fill-opacity:1;fill-rule:evenodd;stroke:#000000;stroke-width:0.94207889"
     d="M 353.03514,143.80012 C 340.41361,138.09682 320.61711,134.70632 283.17868,134.76817 C 245.74026,134.83002 224.09887,138.57287 215.93139,144.78972 C 215.45406,147.24685 216.01946,152.36726 219.01787,153.20224 C 226.99026,149.38535 245.73836,145.25172 283.11049,145.20768 C 320.48263,145.16269 337.29871,147.77632 351.44786,152.66433 C 353.79185,151.91089 353.81931,145.59658 353.03514,143.80012 z"
     id="path196" />
  <path
     style="font-size:12px;fill:url(#linearGradient193);fill-opacity:1;fill-rule:evenodd;stroke:#000000;stroke-width:0.94207889"
     d="M 354.07845,142.98877 C 345.62779,135.54805 320.50121,132.50522 283.06278,132.56707 C 245.62436,132.62892 220.15967,137.41385 214.88831,143.51543 L 215.54178,145.67268 C 221.42874,139.07536 246.08558,135.8676 283.45771,135.82356 C 320.82984,135.77858 342.97506,138.97134 352.95429,144.90237 L 354.07845,142.98877 z"
     id="path194" />
  <path
     style="font-size:12px;opacity:1;fill:url(#linearGradient1478);fill-opacity:1;fill-rule:evenodd;stroke:#000000"
     d="M 351.7934,155.27824 C 339.17186,160.98154 321.69188,163.6767 284.25345,163.61485 C 246.81503,163.553 227.25908,159.81014 218.85956,155.44692 C 218.38224,153.9166 217.55735,152.7349 220.55576,151.89992 C 228.52815,155.71681 247.27625,159.61897 284.64838,159.66302 C 322.02051,159.708 335.82493,156.8629 349.97408,151.97489 C 352.31807,152.72834 352.57756,153.48178 351.7934,155.27824 z"
     id="path1476" />
  <path
     style="font-size:12px;fill:url(#linearGradient258);fill-opacity:1;fill-rule:evenodd;stroke:#000000;stroke-width:0.94207889"
     d="M 351.64542,152.37258 C 339.02389,146.66927 321.54391,143.97412 284.10548,144.03597 C 246.66706,144.09782 227.11111,147.84067 218.71159,152.2039 C 218.23427,153.73421 217.40938,154.91592 220.40778,155.75089 C 228.38018,151.93401 247.12828,148.03185 284.50041,147.9878 C 321.87254,147.94282 335.67696,150.78791 349.82611,155.67593 C 352.1701,154.92248 352.42959,154.16904 351.64542,152.37258 z"
     id="path195" />
  <g
     id="g225"
     transform="translate(58.472063,-86.3982)"
     style="font-size:12px">
    <path
       transform="matrix(1.4,0,0,1.44444,-229.419,-85.7748)"
       style="fill:#929292;fill-opacity:1;fill-rule:evenodd;stroke:none;stroke-width:1px;stroke-linecap:butt;stroke-linejoin:miter;stroke-opacity:1"
       d="M 328.527,205.513 C 328.527,207.24 326.97,208.641 325.052,208.641 C 323.133,208.641 321.576,207.24 321.576,205.513 C 321.576,203.787 323.133,202.386 325.052,202.386 C 326.97,202.386 328.527,203.787 328.527,205.513 z"
       id="path223" />
    <path
       style="fill:#3a3a3a;fill-opacity:1;fill-rule:evenodd;stroke:none;stroke-width:1px;stroke-linecap:butt;stroke-linejoin:miter;stroke-opacity:1"
       d="M 328.527,205.513 C 328.527,207.24 326.97,208.641 325.052,208.641 C 323.133,208.641 321.576,207.24 321.576,205.513 C 321.576,203.787 323.133,202.386 325.052,202.386 C 326.97,202.386 328.527,203.787 328.527,205.513 z"
       id="path224"
       transform="translate(-99.3972,5.56068)" />
  </g>
  <g
     id="g231"
     transform="translate(-52.046937,-78.05717)"
     style="font-size:12px">
    <path
       transform="matrix(0.983164,-0.182727,0.322995,0.946401,0,0)"
       style="fill:#7f7f7f;fill-opacity:1;fill-rule:evenodd;stroke:none;stroke-width:1px;stroke-linecap:butt;stroke-linejoin:miter;stroke-opacity:1"
       d="M 185.252,254.101 L 185.584,265.263 L 187.061,264.853 L 186.615,254.037 L 185.252,254.101 z"
       id="path229" />
    <path
       transform="matrix(0.983164,-0.182727,0.322995,0.946401,2.4328,-0.695086)"
       style="fill:#7f7f7f;fill-opacity:1;fill-rule:evenodd;stroke:none;stroke-width:1px;stroke-linecap:butt;stroke-linejoin:miter;stroke-opacity:1"
       d="M 185.252,254.101 L 185.584,265.263 L 187.061,264.853 L 186.615,254.037 L 185.252,254.101 z"
       id="path230" />
  </g>
  <g
     id="g237"
     transform="translate(-41.620637,-78.404713)"
     style="font-size:12px">
    <path
       transform="matrix(0.983164,-0.182727,0.322995,0.946401,33.7116,-7.64594)"
       style="fill:#7f7f7f;fill-opacity:1;fill-rule:evenodd;stroke:none;stroke-width:1px;stroke-linecap:butt;stroke-linejoin:miter;stroke-opacity:1"
       d="M 185.252,254.101 L 182.698,265.44 L 184.061,265.376 L 186.615,254.037 L 185.252,254.101 z"
       id="path234" />
    <path
       transform="matrix(0.983164,-0.182727,0.322995,0.946401,36.4919,-7.99348)"
       style="fill:#7f7f7f;fill-opacity:1;fill-rule:evenodd;stroke:none;stroke-width:1px;stroke-linecap:butt;stroke-linejoin:miter;stroke-opacity:1"
       d="M 185.252,254.101 L 182.698,265.44 L 184.061,265.376 L 186.615,254.037 L 185.252,254.101 z"
       id="path235" />
    <path
       transform="matrix(0.983164,-0.182727,0.322995,0.946401,39.6198,-8.34103)"
       style="fill:#7f7f7f;fill-opacity:1;fill-rule:evenodd;stroke:none;stroke-width:1px;stroke-linecap:butt;stroke-linejoin:miter;stroke-opacity:1"
       d="M 185.252,254.101 L 182.698,265.44 L 184.061,265.376 L 186.615,254.037 L 185.252,254.101 z"
       id="path236" />
  </g>
  <g
     id="g241"
     transform="matrix(-1,0,0,1,608.47006,-78.404713)"
     style="font-size:12px">
    <path
       transform="matrix(0.983164,-0.182727,0.322995,0.946401,33.7116,-7.64594)"
       style="fill:#7f7f7f;fill-opacity:1;fill-rule:evenodd;stroke:none;stroke-width:1px;stroke-linecap:butt;stroke-linejoin:miter;stroke-opacity:1"
       d="M 185.252,254.101 L 182.698,265.44 L 184.061,265.376 L 186.615,254.037 L 185.252,254.101 z"
       id="path242" />
    <path
       transform="matrix(0.983164,-0.182727,0.322995,0.946401,36.4919,-7.99348)"
       style="fill:#7f7f7f;fill-opacity:1;fill-rule:evenodd;stroke:none;stroke-width:1px;stroke-linecap:butt;stroke-linejoin:miter;stroke-opacity:1"
       d="M 185.252,254.101 L 182.698,265.44 L 184.061,265.376 L 186.615,254.037 L 185.252,254.101 z"
       id="path243" />
    <path
       transform="matrix(0.983164,-0.182727,0.322995,0.946401,39.6198,-8.34103)"
       style="fill:#7f7f7f;fill-opacity:1;fill-rule:evenodd;stroke:none;stroke-width:1px;stroke-linecap:butt;stroke-linejoin:miter;stroke-opacity:1"
       d="M 185.252,254.101 L 182.698,265.44 L 184.061,265.376 L 186.615,254.037 L 185.252,254.101 z"
       id="path244" />
  </g>
  <g
     id="g245"
     style="font-size:12px"
     transform="matrix(-1,0,0,1,620.63406,-77.709628)">
    <path
       transform="matrix(0.983164,-0.182727,0.322995,0.946401,0,0)"
       style="fill:#7f7f7f;fill-opacity:1;fill-rule:evenodd;stroke:none;stroke-width:1px;stroke-linecap:butt;stroke-linejoin:miter;stroke-opacity:1"
       d="M 185.252,254.101 L 185.584,265.263 L 187.061,264.853 L 186.615,254.037 L 185.252,254.101 z"
       id="path246" />
    <path
       transform="matrix(0.983164,-0.182727,0.322995,0.946401,2.4328,-0.695086)"
       style="fill:#7f7f7f;fill-opacity:1;fill-rule:evenodd;stroke:none;stroke-width:1px;stroke-linecap:butt;stroke-linejoin:miter;stroke-opacity:1"
       d="M 185.252,254.101 L 185.584,265.263 L 187.061,264.853 L 186.615,254.037 L 185.252,254.101 z"
       id="path247" />
  </g>
  <g
     id="g248"
     transform="translate(9.4685628,-83.61786)"
     style="font-size:12px">
    <path
       transform="matrix(1.4,0,0,1.44444,-229.419,-85.7748)"
       style="fill:#929292;fill-opacity:1;fill-rule:evenodd;stroke:none;stroke-width:1px;stroke-linecap:butt;stroke-linejoin:miter;stroke-opacity:1"
       d="M 328.527,205.513 C 328.527,207.24 326.97,208.641 325.052,208.641 C 323.133,208.641 321.576,207.24 321.576,205.513 C 321.576,203.787 323.133,202.386 325.052,202.386 C 326.97,202.386 328.527,203.787 328.527,205.513 z"
       id="path249" />
    <path
       style="fill:#3a3a3a;fill-opacity:1;fill-rule:evenodd;stroke:none;stroke-width:1px;stroke-linecap:butt;stroke-linejoin:miter;stroke-opacity:1"
       d="M 328.527,205.513 C 328.527,207.24 326.97,208.641 325.052,208.641 C 323.133,208.641 321.576,207.24 321.576,205.513 C 321.576,203.787 323.133,202.386 325.052,202.386 C 326.97,202.386 328.527,203.787 328.527,205.513 z"
       id="path250"
       transform="translate(-99.3972,5.56068)" />
  </g>
  <g
     id="g251"
     transform="translate(105.39006,-83.9654)"
     style="font-size:12px">
    <path
       transform="matrix(1.4,0,0,1.44444,-229.419,-85.7748)"
       style="fill:#929292;fill-opacity:1;fill-rule:evenodd;stroke:none;stroke-width:1px;stroke-linecap:butt;stroke-linejoin:miter;stroke-opacity:1"
       d="M 328.527,205.513 C 328.527,207.24 326.97,208.641 325.052,208.641 C 323.133,208.641 321.576,207.24 321.576,205.513 C 321.576,203.787 323.133,202.386 325.052,202.386 C 326.97,202.386 328.527,203.787 328.527,205.513 z"
       id="path252" />
    <path
       style="fill:#3a3a3a;fill-opacity:1;fill-rule:evenodd;stroke:none;stroke-width:1px;stroke-linecap:butt;stroke-linejoin:miter;stroke-opacity:1"
       d="M 328.527,205.513 C 328.527,207.24 326.97,208.641 325.052,208.641 C 323.133,208.641 321.576,207.24 321.576,205.513 C 321.576,203.787 323.133,202.386 325.052,202.386 C 326.97,202.386 328.527,203.787 328.527,205.513 z"
       id="path253"
       transform="translate(-99.3972,5.56068)" />
  </g>
</svg>
